Array
(
    [0] => Array
        (
            [email] => ashamv0@gmail.com
            [text] => dfg
            [created] => 2015-10-29 04:05:33
        )

    [1] => Array
        (
            [email] => ashamv0@gmail.com
            [text] => fsdf
            [created] => 2015-10-29 04:04:50
        )

    [2] => Array
        (
            [email] => ashamv0@gmail.com
            [text] => twetr
            [created] => 2015-10-29 01:02:20
        )

)
